Assignment 1
…
data_summary <- merged_data |> 
  group_by(country)  |> 
  summarize(           
    lib_dem_index = mean(lib_dem_index, na.rm = TRUE), 
    CSO_women_participation = mean(CSO_women_participation, na.rm = TRUE), 
    percent_with_internet = mean(percent_with_internet, na.rm = TRUE), 
    women_rep = mean(women_rep, na.rm = TRUE)
  ) |> 
  arrange(desc(women_rep)) 

data_summary

# A tibble: 181 × 5
   country  lib_dem_index CSO_women_participat…¹ percent_with_internet women_rep
   <chr>            <dbl>                  <dbl>                 <dbl>     <dbl>
 1 Rwanda          0.131                    1.44                  6.39      49.1
 2 Sweden          0.885                    2.24                 62.2       44.8
 3 Cuba            0.0462                   1.74                 18.7       41.2
 4 Finland         0.832                    2.17                 58.5       40.3
 5 Norway          0.858                    2.64                 64.1       38.9
 6 Denmark         0.889                    2.48                 60.9       38.1
 7 South A…        0.551                    1.95                 22.4       37.7
 8 Netherl…        0.818                    2.20                 60.0       37.2
 9 Iceland         0.786                    1.84                 65.8       37.1
10 Argenti…        0.629                    1.55                 31.5       36.4
# ℹ 171 more rows
# ℹ abbreviated name: ¹​CSO_women_participation
…
